Django==2.2.2
django-bootstrap3==11.0.0
Pillow==6.1.0
psycopg2-binary==2.8.3
pytz==2018.9
schedule==0.6.0
twilio==6.29.2
xhtml2pdf==0.2.3
pycups==1.9.74
django-phonenumber-field==3.0.1
phonenumbers==8.10.14
transliterate==1.10.2
python-escpos==2.2.0
python-printer-escpos==0.0.3